[gd_resource type="SpatialMaterial" load_steps=2 format=2]

[ext_resource path="res://assets/Prototype_Textures/Dark/texture_09.png" type="Texture" id=1]

[resource]
albedo_texture = ExtResource( 1 )
uv1_triplanar = true
